…
Then use the fishplot package to generate the fishplot image:

``` r
fishplot::fishPlot(fish_list$fish, pad.left=0.1, shape="spline", vlines=fish_list$weeks, vlab=fish_list$weeks)
fishplot::drawLegend(fish_list$fish, nrow=1)
```

<img src="man/figures/README-unnamed-chunk-4-1.png" width="100%" />

Take a look at the underlying matrix and data summaries:

``` r
fish_list$week_counts
#> # A tibble: 34 x 3
#> # Groups:   week [14]
#>     week FPCluster     n
#>    <int> <chr>     <int>
#>  1     1 A             3
#>  2     1 B             1
#>  3     2 A             2
#>  4     2 B             2
#>  5     3 A             9
#>  6     3 A.1           1
#>  7     3 B             4
#>  8     3 C             1
#>  9     4 A             2
#> 10     4 A.1           3
#> # ... with 24 more rows
…
